{
  "success": true,
  "code": 200,
  "error": "error code",
  "balances": [
    {
      "paymentType": 11,
      "subpaymentType": 7,
      "amount": "2000",
      "allowToSpend": "2000"
    }
  ],
  "vouchers": [
    {
      "name": "10% of Item",
      "quantity": 1
    }
  ]
}